{
    "httpsPort": 3000,
    "oauthHost": "oauth.oit.duke.edu",
    "oauthAuthorizationPath": "/oauth/authorize.php",
    "oauthValidationPath": "/oauth/resource.php",
    "oauthRegisterAppPath": "/oauth-registration-ws/register",
    "oauthUpdateAppPath": "/oauth-registration-ws/update",
    "oauthRevokeAppPath": "/oauth-registration-ws/revoke",
    "oauthRegisterScopePath": "/oauth-registration-ws/addScope",
    "clusterSize": 1,
    "tls": {
        "key": "ssl/key.key",
        "intermediates": "ssl/intermediates.cert",
        "cert": "ssl/cert.cert"
    },
    "db": {
        "host": "db",
        "user": "root",
        "password": "root",
        "database": "api",
        "port": 0
    }
}